…
#Food prices trend over time, grouped by commodity - same as above, 
#this time selecting a smaller sample for plotting
commodoties <- c("Wheat", "Milk", "Coffee", "Bananas", "Sugar")
priceTrend <- foodPrices %>%
  select(Price, Commodity, Year) %>%
  #selecting our reduced commodities
  filter(Commodity %in% commodoties) %>%
  group_by(Commodity, Year) %>%
  summarise(globalAveragePrice = mean(Price)/max(Price))

priceTrend
```

```
## # A tibble: 77 x 3
## # Groups:   Commodity [?]
##    Commodity  Year globalAveragePrice
##        <chr> <dbl>              <dbl>
##  1   Bananas  2008          1.0000000
##  2   Bananas  2009          0.4487272
##  3   Bananas  2010          0.1727820
##  4   Bananas  2011          0.2909874
##  5   Bananas  2012          0.4470188
##  6   Bananas  2013          0.1271515
##  7   Bananas  2014          0.1263784
##  8   Bananas  2015          0.1129815
##  9   Bananas  2016          0.2050480
## 10   Bananas  2017          0.2630983
## # ... with 67 more rows
```
…
```
## # A tibble: 140 x 4
##       MONTH DAY_OF_WEEK delayType       Delay
##      <fctr>      <fctr>    <fctr>       <dbl>
##  1  January      Monday  Arrivals  3.08526171
##  2  January     Tuesday  Arrivals  0.49934650
##  3  January    Wenesday  Arrivals -0.64372809
##  4  January    Thursday  Arrivals -0.61050874
##  5  January      Friday  Arrivals  3.37778214
##  6  January    Saturday  Arrivals  0.05099645
##  7  January      Sunday  Arrivals  4.17985079
##  8 February      Monday  Arrivals  1.30443327
##  9 February     Tuesday  Arrivals  5.09620906
## 10 February    Wenesday  Arrivals  3.00267779
## # ... with 130 more rows
```
…
